[
  {
    "id": "0",
    "login": "admin",
    "password": "admin",
    "age": 23,
    "isDelete": false
  },
  {
    "id": "1",
    "login": "mike",
    "password": "mike1",
    "age": 54,
    "isDelete": false
  },
  {
    "id": "2",
    "login": "freddy",
    "password": "freddy1",
    "age": 43,
    "isDelete": false
  },
  {
    "id": "3",
    "login": "tom",
    "password": "tom1",
    "age": 32,
    "isDelete": false
  },
  {
    "id": "4",
    "login": "julia",
    "password": "julia1",
    "age": 25,
    "isDelete": false
  },
  {
    "id": "5",
    "login": "george",
    "password": "george1",
    "age": 21,
    "isDelete": false
  }
]
