{
  "presets": [
    [
      "@babel/preset-env",
      {
        "targets": {
          "node": true
        }
      }
    ],
    "@babel/typescript"
  ],
  "plugins": [
    ["@babel/plugin-proposal-decorators", { "legacy": true }],
    "@babel/proposal-class-properties",
    "@babel/proposal-object-rest-spread"
  ]
}
